<svg xmlns="http://www.w3.org/2000/svg" width="10.378" height="7.739" viewBox="0 0 10.378 7.739">
  <path id="Icon_awesome-check" data-name="Icon awesome-check" d="M3.525,12.164.152,8.791a.519.519,0,0,1,0-.734l.734-.734a.519.519,0,0,1,.734,0L3.892,9.6,8.758,4.729a.519.519,0,0,1,.734,0l.734.734a.519.519,0,0,1,0,.734L4.259,12.164A.519.519,0,0,1,3.525,12.164Z" transform="translate(0 -4.577)" fill="#0074b4"/>
</svg>
