<svg xmlns="http://www.w3.org/2000/svg" width="14.634" height="3" viewBox="0 0 14.634 3">
  <line id="Line_36" data-name="Line 36" x2="14.634" transform="translate(0 1.5)" fill="none" stroke="#0074b4" stroke-width="3"/>
</svg>
