<?xml version="1.0" encoding="utf-8"?>
<!-- Generator: Adobe Illustrator 26.0.1, SVG Export Plug-In . SVG Version: 6.00 Build 0)  -->
<svg version="1.1" id="Layer_1" xmlns="http://www.w3.org/2000/svg" xmlns:xlink="http://www.w3.org/1999/xlink" x="0px" y="0px"
	 viewBox="0 0 131.5 76.3" style="enable-background:new 0 0 131.5 76.3;" xml:space="preserve">
<style type="text/css">
	.st0{fill:#DEF2FF;}
</style>
<g id="Group_3687" transform="translate(-685 -1771.117)">
	<path id="Path_4801" class="st0" d="M710.8,1809.2c0,5.3,0.5,9.2,1.4,11.6c1,2.5,2.5,3.7,4.5,3.7c2,0,3.5-1.2,4.5-3.6
		s1.4-6.3,1.4-11.7c0-5.3-0.5-9.2-1.4-11.7c-0.9-2.4-2.4-3.7-4.5-3.7c-2.1,0-3.6,1.2-4.5,3.6S710.8,1803.8,710.8,1809.2z
		 M685,1809.2c0-11.8,2.8-21.1,8.5-27.9c5.6-6.8,13.4-10.2,23.2-10.2c9.9,0,17.6,3.4,23.2,10.1c5.6,6.7,8.4,16.1,8.4,28
		c0,11.9-2.8,21.3-8.4,28.1c-5.6,6.8-13.3,10.2-23.2,10.2c-9.8,0-17.5-3.4-23.2-10.3C687.8,1830.4,685,1821,685,1809.2z
		 M753.6,1845.5l32.8-39.1c1.3-1.4,2.4-3,3.3-4.7c0.6-1.1,0.9-2.3,0.9-3.5c0.1-1.2-0.4-2.5-1.2-3.4c-0.9-0.9-2.1-1.3-3.3-1.2
		c-1.5-0.1-3,0.7-3.7,2.1c-0.8,1.4-1.2,3.5-1.2,6.5h-24.5v-0.9c0-9.4,2.6-16.8,7.9-22.1c5.3-5.3,12.6-8,22-8c9,0,16.2,2.5,21.6,7.4
		c5.4,4.9,8.2,11.4,8.2,19.4c0,4-0.9,8-2.9,11.5c-1.9,3.5-5.1,7-9.6,10.7l-6.2,5.2h18.6v20.3H753.6z"/>
</g>
</svg>
