<svg xmlns="http://www.w3.org/2000/svg" width="14.347" height="10.699" viewBox="0 0 14.347 10.699">
  <path id="Icon_awesome-check" data-name="Icon awesome-check" d="M4.873,15.066.21,10.4a.717.717,0,0,1,0-1.015L1.225,8.374a.717.717,0,0,1,1.015,0L5.38,11.515l6.728-6.728a.717.717,0,0,1,1.015,0L14.137,5.8a.717.717,0,0,1,0,1.015l-8.25,8.25A.717.717,0,0,1,4.873,15.066Z" transform="translate(0 -4.577)" fill="#0074b4"/>
</svg>
