<svg xmlns="http://www.w3.org/2000/svg" width="33.368" height="25.031" viewBox="0 0 33.368 25.031">
  <path id="Icon_ionic-logo-youtube" data-name="Icon ionic-logo-youtube" d="M33.151,10.027a5.067,5.067,0,0,0-4.823-5.293C24.717,4.565,21.034,4.5,17.273,4.5H16.1c-3.754,0-7.444.065-11.055.235A5.078,5.078,0,0,0,.228,10.04C.065,12.361-.007,14.681,0,17s.065,4.641.222,6.968a5.084,5.084,0,0,0,4.817,5.312c3.794.176,7.685.254,11.641.248q5.945.02,11.641-.248a5.085,5.085,0,0,0,4.823-5.312c.156-2.327.228-4.647.222-6.974Q33.386,13.515,33.151,10.027ZM13.493,23.4V10.588l9.451,6.4Z" transform="translate(0 -4.5)" fill="#0074b4"/>
</svg>
