<svg xmlns="http://www.w3.org/2000/svg" xmlns:xlink="http://www.w3.org/1999/xlink" width="260" height="244" viewBox="0 0 260 244">
  <defs>
    <clipPath id="clip-path">
      <rect id="Rectangle_1222" data-name="Rectangle 1222" width="260" height="244" transform="translate(511 617)" fill="#fff"/>
    </clipPath>
  </defs>
</svg>
