<svg xmlns="http://www.w3.org/2000/svg" xmlns:xlink="http://www.w3.org/1999/xlink" width="106.845" height="29.248" viewBox="0 0 106.845 29.248">
  <defs>
    <clipPath id="clip-path">
      <rect id="Rectangle_1214" data-name="Rectangle 1214" width="106.845" height="29.248" transform="translate(0 0)" fill="#fff"/>
    </clipPath>
  </defs>
  <g id="Mask_Group_28" data-name="Mask Group 28" clip-path="url(#clip-path)">
    <g id="Page-1" transform="translate(6.401 5.408)">
      <g id="Logotype" transform="translate(0 0)">
        <g id="qb-logo" transform="translate(0 0)">
          <g id="Group" transform="translate(0 0)">
            <path id="Shape" d="M195.843,36.51c0-.192-.164-.262-.332-.262H195.2v.9h.161v-.374h.115l.209.374h.2l-.241-.392a.238.238,0,0,0,.206-.241Zm-.485.129v-.255h.146c.084,0,.178.024.178.122s-.1.133-.2.133h-.129Zm.15-.734a.79.79,0,1,0,.8.794.793.793,0,0,0-.8-.794Zm0,1.465a.671.671,0,1,1,.67-.671.673.673,0,0,1-.67.671ZM144.32,36.039a1.862,1.862,0,0,1-1.751-2.049,1.758,1.758,0,0,1,3.063-1.405l1.232-1.23a3.7,3.7,0,1,0-2.558,6.321,3.526,3.526,0,0,0,2.59-.926l-1.2-1.289a1.906,1.906,0,0,1-1.378.578Zm-6.891,1.441h1.912V30.544h-1.912V37.48Zm-3.476-3.133a1.586,1.586,0,0,1-1.519,1.693c-.762,0-1.169-.545-1.169-1.665V30.544h-1.912v4.3a2.529,2.529,0,0,0,2.621,2.827,2.754,2.754,0,0,0,2.033-1.234h.029V37.48h1.828V30.544h-1.912v3.8ZM125.9,31.425h-.042a2.95,2.95,0,0,0-2.19-1.076,3.46,3.46,0,0,0-3.451,3.635,3.4,3.4,0,0,0,3.36,3.691,3.1,3.1,0,0,0,2.226-1.029h.028V40.9h1.912V30.544H125.9v.881Zm-1.856,4.615a1.928,1.928,0,0,1-1.854-2.055,1.894,1.894,0,0,1,1.854-2.027,1.967,1.967,0,0,1,1.842,2.055,1.927,1.927,0,0,1-1.842,2.027Zm43.545-5.69a3.575,3.575,0,0,0-3.754,3.636,3.754,3.754,0,0,0,7.508,0,3.575,3.575,0,0,0-3.754-3.636Zm0,5.69a1.873,1.873,0,0,1-1.815-2.055,1.826,1.826,0,1,1,3.629,0,1.873,1.873,0,0,1-1.815,2.055Zm23.9-2.828c-.984-.235-1.331-.362-1.331-.761,0-.55.7-.671,1.011-.671a2.136,2.136,0,0,1,1.515.692l1.127-1.084a3.4,3.4,0,0,0-2.629-1.038c-1.384,0-2.836.7-2.836,2.254,0,1.338,1.046,1.741,2.07,1.987,1.079.252,1.464.436,1.464.871,0,.642-.727.747-.977.747a2.473,2.473,0,0,1-1.741-.824l-1.161,1.179a3.873,3.873,0,0,0,2.832,1.128c1.869,0,2.978-.893,2.978-2.365,0-1.409-1.357-1.883-2.323-2.115Zm-3.614-2.667h-2.465l-2.468,2.878H182.9v-6.7h-1.912V37.48H182.9V34.059h.043l2.561,3.421h2.516l-2.976-3.791,2.833-3.146Zm-28.348-.2a2.993,2.993,0,0,0-2.127.954h-.036V26.721h-1.911V37.48h1.828V36.5h.029a2.582,2.582,0,0,0,2.176,1.176,3.489,3.489,0,0,0,3.469-3.691,3.441,3.441,0,0,0-3.428-3.636Zm-.376,5.691a1.927,1.927,0,0,1-1.842-2.027,1.967,1.967,0,0,1,1.842-2.055,1.893,1.893,0,0,1,1.852,2.027,1.926,1.926,0,0,1-1.852,2.055Zm-4.417-5.5h-2.466L149.8,33.422h-.043v-6.7H147.85V37.48h1.912V34.059h.043l2.561,3.421h2.516l-2.976-3.791,2.833-3.146Zm21.256-.2a3.575,3.575,0,0,0-3.754,3.636,3.754,3.754,0,0,0,7.508,0,3.575,3.575,0,0,0-3.754-3.636Zm0,5.691a1.874,1.874,0,0,1-1.815-2.055,1.826,1.826,0,1,1,3.629,0,1.873,1.873,0,0,1-1.815,2.055Z" transform="translate(-101.966 -22.689)"/>
            <ellipse id="Oval" cx="8.053" cy="8.068" rx="8.053" ry="8.068" fill="#2ca01c"/>
            <path id="Shape-2" data-name="Shape" d="M15.108,23.791a3.135,3.135,0,0,0,3.132,3.138h.447V25.763H18.24a1.972,1.972,0,0,1,0-3.944h1.075v6.1a1.164,1.164,0,0,0,1.163,1.165V20.653H18.24a3.135,3.135,0,0,0-3.132,3.138Zm8.5-3.137h-.447v1.165h.447a1.972,1.972,0,0,1,0,3.944H22.534v-6.1A1.164,1.164,0,0,0,21.371,18.5v8.427H23.61a3.138,3.138,0,0,0,0-6.275Z" transform="translate(-12.872 -15.723)" fill="#fff"/>
            <path id="Shape-3" data-name="Shape" d="M133.566,6.391a.533.533,0,1,0-.532-.533.533.533,0,0,0,.532.533Zm-3.175.359a1.2,1.2,0,0,0-1.093.669h-.015V6.853h-.836v3.529h.88V8.441a.863.863,0,0,1,.821-.956c.565,0,.661.522.661.941v1.956h.88V8.177a1.284,1.284,0,0,0-1.3-1.426Zm-3.727,3.632h.88V6.853h-.88v3.529Zm16.014-3.991a.533.533,0,1,0-.532-.533.533.533,0,0,0,.532.533Zm-1.428.46v.782h.987v2.749h.881V7.633h.987V6.851h-2.856Zm-1.5,3.531h.88V6.853h-.88v3.529Zm-7.613-2.749h.987v2.749h.88V7.633h.987V6.851h-2.855v.782Zm5.831,1.161a.863.863,0,0,1-.822.956c-.565,0-.66-.522-.66-.941V6.853h-.881V9.059a1.284,1.284,0,0,0,1.3,1.426A1.2,1.2,0,0,0,138,9.816h.015v.566h.837V6.853h-.88V8.794Z" transform="translate(-107.426 -4.554)"/>
          </g>
        </g>
      </g>
    </g>
  </g>
</svg>
