<svg id="social-facebook" xmlns="http://www.w3.org/2000/svg" width="25.031" height="25.031" viewBox="0 0 25.031 25.031">
  <path id="social-facebook-2" data-name="social-facebook" d="M28.689,5.04H6.422A1.382,1.382,0,0,0,5.04,6.422V28.69a1.382,1.382,0,0,0,1.382,1.381H18.41V20.377H15.148V16.6H18.41V13.814c0-3.233,1.975-4.994,4.858-4.994a26.691,26.691,0,0,1,2.915.149v3.379h-2c-1.568,0-1.873.746-1.873,1.839V16.6h3.741l-.487,3.778H22.313v9.693h6.379a1.382,1.382,0,0,0,1.38-1.382V6.422A1.382,1.382,0,0,0,28.689,5.04Z" transform="translate(-5.04 -5.04)" fill="#0074b4"/>
</svg>
