<svg id="social-instagram" xmlns="http://www.w3.org/2000/svg" width="25.04" height="25.031" viewBox="0 0 25.04 25.031">
  <path id="instagram-filled" d="M15.132,12.81a2.468,2.468,0,1,0-2.468,2.457A2.465,2.465,0,0,0,15.132,12.81ZM18.8.022H6.274A6.251,6.251,0,0,0,.016,6.252V7.988H9.224a5.944,5.944,0,0,1,6.879,0h8.951V6.252A6.25,6.25,0,0,0,18.8.022Zm2.534,5.926a.7.7,0,0,1-.7.692H18.488a.7.7,0,0,1-.7-.692V3.808a.7.7,0,0,1,.7-.692h2.148a.7.7,0,0,1,.7.692ZM18.608,12.81a5.944,5.944,0,0,1-11.888,0A5.861,5.861,0,0,1,7.285,10.3H.016v8.527a6.251,6.251,0,0,0,6.258,6.23H18.8a6.251,6.251,0,0,0,6.258-6.23V10.3H18.043a5.863,5.863,0,0,1,.565,2.514Z" transform="translate(-0.016 -0.022)" fill="#0074b4"/>
</svg>
